[20/12/2018 19:57:15] !deposit 49 thousand dollar
[20/12/2018 19:58:00] !deposit 49000
[20/12/2018 19:58:22] !withdraw 49000
[20/12/2018 19:58:43] !deposit 49kk
[20/12/2018 19:58:55] !deposit 49kk
[20/12/2018 19:59:02] !deposit 4900000000
[20/12/2018 19:59:15] !deposit 49000000
[20/12/2018 19:59:38] !withdraw 49000000
