[27/01/2019 12:56:11] !deposit
[27/01/2019 12:56:22] !deposit 2kk
[27/01/2019 12:56:31] !deposit 2000000
[27/01/2019 13:05:17] !deposit 85000
[27/01/2019 13:05:22] !deposit 850000
[27/01/2019 13:05:33] !deposit 760000
[27/01/2019 15:44:29] !deposit
[27/01/2019 15:44:36] !deposit 30000000
[27/01/2019 15:44:39] !deposit 3000000
[27/01/2019 15:52:04] !deposit 5000
