[03/12/2018 16:52:36] !depositall
[03/12/2018 16:52:54] !withdrawall
[04/12/2018 20:22:28] !depositall
[04/12/2018 20:22:41] !withdrawall
[04/12/2018 20:23:31] !depositall
[04/12/2018 20:36:55] !withdrawall
[04/12/2018 21:45:56] !depositall
[04/12/2018 21:46:02] !withdrawall
[04/12/2018 21:47:01] !depositall
[04/12/2018 22:16:44] !withdrawall
[05/12/2018 09:24:03] !depositall
[05/12/2018 09:24:08] !withdrawall
[06/12/2018 10:38:31] !depositall
